{
  "total": 50,
  "per_page": 15,
  "current_page": 1,
  "last_page": 4,
  "next_page_url": "http://localhost:8080/static/users.json?page=2",
  "prev_page_url": null,
  "from": 1,
  "to": 15,
  "data": [
    {
      "id": 2,
      "name": "Seamus Deckow",
      "email": "kali.braun@kuvalis.com",
      "active": 1,
      "created_at": "2016-06-19 09:10:56",
      "updated_at": "2016-06-19 09:10:56",
      "deleted_at": null
    },
    {
      "id": 3,
      "name": "Mr. Keanu Will V",
      "email": "betsy.bartell@shanahan.org",
      "active": 1,
      "created_at": "2016-06-19 09:10:56",
      "updated_at": "2016-06-19 09:10:56",
      "deleted_at": null
    },
    {
      "id": 4,
      "name": "Mrs. Katelin Collins MD",
      "email": "raymundo.homenick@gmail.com",
      "active": 1,
      "created_at": "2016-06-19 09:10:56",
      "updated_at": "2016-06-19 09:10:56",
      "deleted_at": null
    },
    {
      "id": 5,
      "name": "Mittie Abbott Sr.",
      "email": "jstokes@casper.info",
      "active": 1,
      "created_at": "2016-06-19 09:10:56",
      "updated_at": "2016-06-19 09:10:56",
      "deleted_at": null
    },
    {
      "id": 6,
      "name": "Noemy Kirlin IV",
      "email": "ian.hammes@thompson.com",
      "active": 1,
      "created_at": "2016-06-19 09:10:56",
      "updated_at": "2016-06-19 09:10:56",
      "deleted_at": null
    },
    {
      "id": 7,
      "name": "Celia Kertzmann",
      "email": "hcartwright@west.biz",
      "active": 1,
      "created_at": "2016-06-19 09:10:56",
      "updated_at": "2016-06-19 09:10:56",
      "deleted_at": null
    },
    {
      "id": 8,
      "name": "Dr. Emely Rippin III",
      "email": "rreynolds@hamill.com",
      "active": 1,
      "created_at": "2016-06-19 09:10:56",
      "updated_at": "2016-06-19 09:10:56",
      "deleted_at": null
    },
    {
      "id": 9,
      "name": "Waldo Pfeffer",
      "email": "prosacco.zena@yahoo.com",
      "active": 1,
      "created_at": "2016-06-19 09:10:56",
      "updated_at": "2016-06-19 09:10:56",
      "deleted_at": null
    },
    {
      "id": 10,
      "name": "Prof. Olin Crist MD",
      "email": "connelly.emory@vonrueden.com",
      "active": 1,
      "created_at": "2016-06-19 09:10:56",
      "updated_at": "2016-06-19 09:10:56",
      "deleted_at": null
    },
    {
      "id": 11,
      "name": "Dr. Kasandra Bailey",
      "email": "ubaldo81@grant.com",
      "active": 1,
      "created_at": "2016-06-19 09:10:56",
      "updated_at": "2016-06-19 09:10:56",
      "deleted_at": null
    },
    {
      "id": 12,
      "name": "Aaron Balistreri DVM",
      "email": "lschmidt@price.net",
      "active": 1,
      "created_at": "2016-06-19 09:10:56",
      "updated_at": "2016-06-19 09:10:56",
      "deleted_at": null
    },
    {
      "id": 13,
      "name": "Dana Bahringer",
      "email": "klarkin@hotmail.com",
      "active": 1,
      "created_at": "2016-06-19 09:10:56",
      "updated_at": "2016-06-19 09:10:56",
      "deleted_at": null
    },
    {
      "id": 14,
      "name": "Prof. John Powlowski MD",
      "email": "randerson@gmail.com",
      "active": 1,
      "created_at": "2016-06-19 09:10:56",
      "updated_at": "2016-06-19 09:10:56",
      "deleted_at": null
    },
    {
      "id": 15,
      "name": "Prof. Uriel Muller",
      "email": "lily.gulgowski@gmail.com",
      "active": 1,
      "created_at": "2016-06-19 09:10:56",
      "updated_at": "2016-06-19 09:10:56",
      "deleted_at": null
    }
  ]
}
